…
### Vs what we want to get to

``` r
## Vs what we want to get to
combined_tables[[1]] %>%
  pivot_longer(cols = !c("Player", "Team", "Position", "season", "rate", "stdoi", "sit"),
               names_to = "stat",
               values_to = "value")
```

    ## # A tibble: 284,487 × 9
    ##    Player     Team  Position   season rate  stdoi sit   stat             value
    ##    <chr>      <chr> <chr>       <int> <chr> <chr> <chr> <chr>            <dbl>
    ##  1 Ryan Suter STL   D        20242025 n     std   5v5   GP               82   
    ##  2 Ryan Suter STL   D        20242025 n     std   5v5   TOI            1397.  
    ##  3 Ryan Suter STL   D        20242025 n     std   5v5   Goals             1   
    ##  4 Ryan Suter STL   D        20242025 n     std   5v5   Total.Assists    12   
    ##  5 Ryan Suter STL   D        20242025 n     std   5v5   First.Assists     7   
    ##  6 Ryan Suter STL   D        20242025 n     std   5v5   Second.Assists    5   
    ##  7 Ryan Suter STL   D        20242025 n     std   5v5   Total.Points     13   
    ##  8 Ryan Suter STL   D        20242025 n     std   5v5   IPP              22.4 
    ##  9 Ryan Suter STL   D        20242025 n     std   5v5   Shots            58   
    ## 10 Ryan Suter STL   D        20242025 n     std   5v5   SH.               1.72
    ## # ℹ 284,477 more rows
…
